Reproducible Research- Week 1 Course Project 1
…
#after seeing that the variable date is not in the appropriate format
amd <- read_csv("activity.csv", col_types = cols(
  date = col_date(format = "%Y-%m-%d") #  Specify the date formats
  )) 

# Coding NaN variables to NA, so all missing values are "NA"

for (col in names(amd)) {
  amd[[col]] <- ifelse(is.nan(amd[[col]]), NA, amd[[col]])
}
  
print(amd)

## # A tibble: 17,568 x 3
##    steps  date interval
##    <dbl> <dbl>    <dbl>
##  1    NA 15614        0
##  2    NA 15614        5
##  3    NA 15614       10
##  4    NA 15614       15
##  5    NA 15614       20
##  6    NA 15614       25
##  7    NA 15614       30
##  8    NA 15614       35
##  9    NA 15614       40
## 10    NA 15614       45
## #  with 17,558 more rows
…
What is mean total number of steps taken per day? For this part of the assignment, you can ignore the missing values in the dataset.

The total mean steps per day are 9,354. Calculated from code below.

# Summarize steps by date
daily_steps <- amd %>%
  group_by(date) %>%
  summarize(total_steps = sum(steps, na.rm = TRUE))

## `summarise()` ungrouping output (override with `.groups` argument)

# Print the summarized data
print(daily_steps)

## # A tibble: 61 x 2
##     date total_steps
##    <dbl>       <dbl>
##  1 15614           0
##  2 15615         126
##  3 15616       11352
##  4 15617       12116
##  5 15618       13294
##  6 15619       15420
##  7 15620       11015
##  8 15621           0
##  9 15622       12811
## 10 15623        9900
## #  with 51 more rows
…
## # A tibble: 6 x 3
##    steps  date interval
##    <dbl> <dbl>    <dbl>
## 1 1.72   15614        0
## 2 0.340  15614        5
## 3 0.132  15614       10
## 4 0.151  15614       15
## 5 0.0755 15614       20
## 6 2.09   15614       25

print(filled_data)

## # A tibble: 17,568 x 3
##     steps  date interval
##     <dbl> <dbl>    <dbl>
##  1 1.72   15614        0
##  2 0.340  15614        5
##  3 0.132  15614       10
##  4 0.151  15614       15
##  5 0.0755 15614       20
##  6 2.09   15614       25
##  7 0.528  15614       30
##  8 0.868  15614       35
##  9 0      15614       40
## 10 1.47   15614       45
## #  with 17,558 more rows
…
